Easy Bayes with rstanarm and brms
…
Bayesian analysis + tidy data + geoms

# add fitted values given the posterior draws for model parameters

library(tidybayes)
attendance %>% 
  add_fitted_draws(attendance_brms)

# A tibble: 125,600 x 10
# Groups:   id, gender, math, daysabs, prog, .row [314]
   id    gender  math daysabs prog      .row .chain .iteration .draw .value
   <fct> <fct>  <dbl>   <dbl> <fct>    <int>  <int>      <int> <int>  <dbl>
 1 1001  Male      63       4 Academic     1     NA         NA     1   5.05
 2 1001  Male      63       4 Academic     1     NA         NA     2   5.52
 3 1001  Male      63       4 Academic     1     NA         NA     3   4.83
 4 1001  Male      63       4 Academic     1     NA         NA     4   4.97
 5 1001  Male      63       4 Academic     1     NA         NA     5   5.41
 6 1001  Male      63       4 Academic     1     NA         NA     6   4.98
 7 1001  Male      63       4 Academic     1     NA         NA     7   5.37
 8 1001  Male      63       4 Academic     1     NA         NA     8   5.30
 9 1001  Male      63       4 Academic     1     NA         NA     9   4.99
10 1001  Male      63       4 Academic     1     NA         NA    10   5.20
# ... with 125,590 more rows
…
